<define-tag pagetitle>DLA-3159-1 libbluray</define-tag>
<define-tag report_date>2022-10-25</define-tag>
<define-tag secrefs>Bug#1011716</define-tag>
<define-tag packages>libbluray</define-tag>
<define-tag isvulnerable>yes</define-tag>
<define-tag fixed>yes</define-tag>
<define-tag fixed-section>no</define-tag>

#use wml::debian::security

