<define-tag pagetitle>DLA-3112-1 bzip2</define-tag>
<define-tag report_date>2022-09-16</define-tag>
<define-tag secrefs>Bug#944557 Bug#965309</define-tag>
<define-tag packages>bzip2</define-tag>
<define-tag isvulnerable>yes</define-tag>
<define-tag fixed>yes</define-tag>
<define-tag fixed-section>no</define-tag>

#use wml::debian::security

