<define-tag pagetitle>DLA-3081-1 open-vm-tools</define-tag>
<define-tag report_date>2022-09-02</define-tag>
<define-tag secrefs>CVE-2022-31676</define-tag>
<define-tag packages>open-vm-tools</define-tag>
<define-tag isvulnerable>yes</define-tag>
<define-tag fixed>yes</define-tag>
<define-tag fixed-section>no</define-tag>

#use wml::debian::security

