<define-tag pagetitle>DLA-3183-1 webkit2gtk</define-tag>
<define-tag report_date>2022-11-09</define-tag>
<define-tag secrefs>CVE-2022-42799 CVE-2022-42823 CVE-2022-42824</define-tag>
<define-tag packages>webkit2gtk</define-tag>
<define-tag isvulnerable>yes</define-tag>
<define-tag fixed>yes</define-tag>
<define-tag fixed-section>no</define-tag>

#use wml::debian::security

