<define-tag pagetitle>DLA-2932-1 tiff</define-tag>
<define-tag report_date>2022-3-6</define-tag>
<define-tag secrefs>CVE-2022-0561 CVE-2022-0562 CVE-2022-22844</define-tag>
<define-tag packages>tiff</define-tag>
<define-tag isvulnerable>yes</define-tag>
<define-tag fixed>yes</define-tag>
<define-tag fixed-section>no</define-tag>

#use wml::debian::security

