<define-tag pagetitle>DLA-3145-1 git</define-tag>
<define-tag report_date>2022-10-11</define-tag>
<define-tag secrefs>CVE-2021-21300 CVE-2021-40330 Bug#985120</define-tag>
<define-tag packages>git</define-tag>
<define-tag isvulnerable>yes</define-tag>
<define-tag fixed>yes</define-tag>
<define-tag fixed-section>no</define-tag>

#use wml::debian::security

