<define-tag pagetitle>DLA-2929-1 ujson</define-tag>
<define-tag report_date>2022-03-01</define-tag>
<define-tag secrefs>CVE-2021-45958</define-tag>
<define-tag packages>ujson</define-tag>
<define-tag isvulnerable>yes</define-tag>
<define-tag fixed>yes</define-tag>
<define-tag fixed-section>no</define-tag>

#use wml::debian::security

