<define-tag pagetitle>DLA-3181-1 sudo</define-tag>
<define-tag report_date>2022-11-07</define-tag>
<define-tag secrefs>CVE-2021-23239</define-tag>
<define-tag packages>sudo</define-tag>
<define-tag isvulnerable>yes</define-tag>
<define-tag fixed>yes</define-tag>
<define-tag fixed-section>no</define-tag>

#use wml::debian::security
