<define-tag pagetitle>DSA-4961-1 tor</define-tag>
<define-tag report_date>2021-8-23</define-tag>
<define-tag secrefs>CVE-2021-38385</define-tag>
<define-tag packages>tor</define-tag>
<define-tag isvulnerable>yes</define-tag>
<define-tag fixed>yes</define-tag>
<define-tag fixed-section>no</define-tag>

#use wml::debian::security



</dl>
