<define-tag pagetitle>DSA-4905-1 shibboleth-sp</define-tag>
<define-tag report_date>2021-4-27</define-tag>
<define-tag secrefs>CVE-2021-31826 Bug#987608</define-tag>
<define-tag packages>shibboleth-sp</define-tag>
<define-tag isvulnerable>yes</define-tag>
<define-tag fixed>yes</define-tag>
<define-tag fixed-section>no</define-tag>

#use wml::debian::security



</dl>
