<define-tag pagetitle>DSA-4813-1 firefox-esr</define-tag>
<define-tag report_date>2020-12-16</define-tag>
<define-tag secrefs>CVE-2020-16042 CVE-2020-26971 CVE-2020-26973 CVE-2020-26974 CVE-2020-26978 CVE-2020-35111 CVE-2020-35113</define-tag>
<define-tag packages>firefox-esr</define-tag>
<define-tag isvulnerable>yes</define-tag>
<define-tag fixed>yes</define-tag>
<define-tag fixed-section>no</define-tag>

#use wml::debian::security



</dl>
