<define-tag pagetitle>DLA-2813-1 ckeditor</define-tag>
<define-tag report_date>2021-11-09</define-tag>
<define-tag secrefs>CVE-2021-33829 CVE-2021-37695 Bug#992290</define-tag>
<define-tag packages>ckeditor</define-tag>
<define-tag isvulnerable>yes</define-tag>
<define-tag fixed>yes</define-tag>
<define-tag fixed-section>no</define-tag>

#use wml::debian::security

