<define-tag pagetitle>DLA-2747-1 ircii</define-tag>
<define-tag report_date>2021-8-22</define-tag>
<define-tag secrefs>CVE-2021-29376</define-tag>
<define-tag packages>ircii</define-tag>
<define-tag isvulnerable>yes</define-tag>
<define-tag fixed>yes</define-tag>
<define-tag fixed-section>no</define-tag>

#use wml::debian::security

