<define-tag pagetitle>DLA-2667-1 djvulibre</define-tag>
<define-tag report_date>2021-05-26</define-tag>
<define-tag secrefs>CVE-2019-15142 CVE-2019-15143 CVE-2019-15144 CVE-2019-15145 CVE-2019-18804 CVE-2021-3500 CVE-2021-32490 CVE-2021-32491 CVE-2021-32492 CVE-2021-32493 Bug#945114 Bug#988215</define-tag>
<define-tag packages>djvulibre</define-tag>
<define-tag isvulnerable>yes</define-tag>
<define-tag fixed>yes</define-tag>
<define-tag fixed-section>no</define-tag>

#use wml::debian::security

