<define-tag pagetitle>DLA-2819-1 ntfs-3g</define-tag>
<define-tag report_date>2021-11-16</define-tag>
<define-tag secrefs>CVE-2021-33285 CVE-2021-33286 CVE-2021-33287 CVE-2021-33289 CVE-2021-35266 CVE-2021-35267 CVE-2021-35268 CVE-2021-35269 CVE-2021-39251 CVE-2021-39252 CVE-2021-39253 CVE-2021-39254 CVE-2021-39255 CVE-2021-39256 CVE-2021-39257 CVE-2021-39258 CVE-2021-39259 CVE-2021-39260 CVE-2021-39261 CVE-2021-39262 CVE-2021-39263 Bug#988386</define-tag>
<define-tag packages>ntfs-3g</define-tag>
<define-tag isvulnerable>yes</define-tag>
<define-tag fixed>yes</define-tag>
<define-tag fixed-section>no</define-tag>

#use wml::debian::security

