<define-tag pagetitle>DLA-2866-1 uw-imap</define-tag>
<define-tag report_date>2021-12-29</define-tag>
<define-tag secrefs>CVE-2018-19518 Bug#914632</define-tag>
<define-tag packages>uw-imap</define-tag>
<define-tag isvulnerable>yes</define-tag>
<define-tag fixed>yes</define-tag>
<define-tag fixed-section>no</define-tag>

#use wml::debian::security

