<define-tag pagetitle>DLA-2533-1 crmsh</define-tag>
<define-tag report_date>2021-01-25</define-tag>
<define-tag secrefs>CVE-2020-35459</define-tag>
<define-tag packages>crmsh</define-tag>
<define-tag isvulnerable>yes</define-tag>
<define-tag fixed>yes</define-tag>
<define-tag fixed-section>no</define-tag>

#use wml::debian::security
