<define-tag pagetitle>DLA-2616-1 libxstream-java</define-tag>
<define-tag report_date>2021-4-03</define-tag>
<define-tag secrefs>CVE-2021-21341 CVE-2021-21342 CVE-2021-21343 CVE-2021-21344 CVE-2021-21345 CVE-2021-21346 CVE-2021-21347 CVE-2021-21348 CVE-2021-21349 CVE-2021-21350 CVE-2021-21351 Bug#985843</define-tag>
<define-tag packages>libxstream-java</define-tag>
<define-tag isvulnerable>yes</define-tag>
<define-tag fixed>yes</define-tag>
<define-tag fixed-section>no</define-tag>

#use wml::debian::security

