<define-tag pagetitle>DLA-2784-1 icu</define-tag>
<define-tag report_date>2021-10-12</define-tag>
<define-tag secrefs>CVE-2020-21913</define-tag>
<define-tag packages>icu</define-tag>
<define-tag isvulnerable>yes</define-tag>
<define-tag fixed>yes</define-tag>
<define-tag fixed-section>no</define-tag>

#use wml::debian::security
