<define-tag pagetitle>DLA-2575-1 firefox-esr</define-tag>
<define-tag report_date>2021-02-25</define-tag>
<define-tag secrefs>CVE-2021-23968 CVE-2021-23969 CVE-2021-23973 CVE-2021-23978</define-tag>
<define-tag packages>firefox-esr</define-tag>
<define-tag isvulnerable>yes</define-tag>
<define-tag fixed>yes</define-tag>
<define-tag fixed-section>no</define-tag>

#use wml::debian::security

