<define-tag pagetitle>DSA-5318-1 lava</define-tag>
<define-tag report_date>2023-1-13</define-tag>
<define-tag secrefs>CVE-2022-44641 Bug#1024429</define-tag>
<define-tag packages>lava</define-tag>
<define-tag isvulnerable>yes</define-tag>
<define-tag fixed>yes</define-tag>
<define-tag fixed-section>no</define-tag>

#use wml::debian::security



</dl>
