<define-tag pagetitle>DLA-864-1 jhead</define-tag>
<define-tag report_date>2017-3-22</define-tag>
<define-tag secrefs>CVE-2016-3822 Bug##858213</define-tag>
<define-tag packages>jhead</define-tag>
<define-tag isvulnerable>yes</define-tag>
<define-tag fixed>yes</define-tag>
<define-tag fixed-section>no</define-tag>

#use wml::debian::security

