<define-tag pagetitle>DLA-3261-1 libetpan</define-tag>
<define-tag report_date>2023-01-05</define-tag>
<define-tag secrefs>CVE-2022-4121</define-tag>
<define-tag packages>libetpan</define-tag>
<define-tag isvulnerable>yes</define-tag>
<define-tag fixed>yes</define-tag>
<define-tag fixed-section>no</define-tag>

#use wml::debian::security
