<define-tag pagetitle>DLA-2212-1 openconnect</define-tag>
<define-tag report_date>2020-05-16</define-tag>
<define-tag secrefs>CVE-2020-12823 Bug#960620</define-tag>
<define-tag packages>openconnect</define-tag>
<define-tag isvulnerable>yes</define-tag>
<define-tag fixed>yes</define-tag>
<define-tag fixed-section>no</define-tag>

#use wml::debian::security

