<define-tag pagetitle>DLA-2084-1 graphicsmagick</define-tag>
<define-tag report_date>2020-1-29</define-tag>
<define-tag secrefs>CVE-2019-19950 CVE-2019-19951 CVE-2019-19953</define-tag>
<define-tag packages>graphicsmagick</define-tag>
<define-tag isvulnerable>yes</define-tag>
<define-tag fixed>yes</define-tag>
<define-tag fixed-section>no</define-tag>

#use wml::debian::security

