<define-tag pagetitle>DLA-1257-1 openssh</define-tag>
<define-tag report_date>2018-1-26</define-tag>
<define-tag secrefs>CVE-2016-10708</define-tag>
<define-tag packages>openssh</define-tag>
<define-tag isvulnerable>yes</define-tag>
<define-tag fixed>yes</define-tag>
<define-tag fixed-section>no</define-tag>

#use wml::debian::security

