<define-tag pagetitle>DLA-1620-1 ghostscript</define-tag>
<define-tag report_date>2018-12-27</define-tag>
<define-tag secrefs>CVE-2018-19134 CVE-2018-19478</define-tag>
<define-tag packages>ghostscript</define-tag>
<define-tag isvulnerable>yes</define-tag>
<define-tag fixed>yes</define-tag>
<define-tag fixed-section>no</define-tag>

#use wml::debian::security

