<define-tag pagetitle>DSA-4560-1 simplesamlphp</define-tag>
<define-tag report_date>2019-11-06</define-tag>
<define-tag secrefs>CVE-2019-3465 Bug#944107</define-tag>
<define-tag packages>simplesamlphp</define-tag>
<define-tag isvulnerable>yes</define-tag>
<define-tag fixed>yes</define-tag>
<define-tag fixed-section>no</define-tag>

#use wml::debian::security



</dl>
