<define-tag pagetitle>DSA-5064-1 python-nbxmpp</define-tag>
<define-tag report_date>2022-1-29</define-tag>
<define-tag secrefs>CVE-2021-41055</define-tag>
<define-tag packages>python-nbxmpp</define-tag>
<define-tag isvulnerable>yes</define-tag>
<define-tag fixed>yes</define-tag>
<define-tag fixed-section>no</define-tag>

#use wml::debian::security



</dl>
