<define-tag pagetitle>DSA-5285-1 asterisk</define-tag>
<define-tag report_date>2022-11-17</define-tag>
<define-tag secrefs>CVE-2021-37706 CVE-2021-43299 CVE-2021-43300 CVE-2021-43301 CVE-2021-43302 CVE-2021-43303 CVE-2021-43804 CVE-2021-43845 CVE-2021-46837 CVE-2022-21722 CVE-2022-21723 CVE-2022-23608 CVE-2022-24763 CVE-2022-24764 CVE-2022-24786 CVE-2022-24792 CVE-2022-24793 CVE-2022-26498 CVE-2022-26499 CVE-2022-26651 Bug#1014998 Bug#1018073 Bug#1014976</define-tag>
<define-tag packages>asterisk</define-tag>
<define-tag isvulnerable>yes</define-tag>
<define-tag fixed>yes</define-tag>
<define-tag fixed-section>no</define-tag>

#use wml::debian::security



</dl>
