<define-tag pagetitle>DSA-5169-1 openssl</define-tag>
<define-tag report_date>2022-6-26</define-tag>
<define-tag secrefs>CVE-2022-2068</define-tag>
<define-tag packages>openssl</define-tag>
<define-tag isvulnerable>yes</define-tag>
<define-tag fixed>yes</define-tag>
<define-tag fixed-section>no</define-tag>

#use wml::debian::security



</dl>
