<define-tag pagetitle>DSA-5266-1 expat</define-tag>
<define-tag report_date>2022-10-30</define-tag>
<define-tag secrefs>CVE-2022-43680 Bug#1022743</define-tag>
<define-tag packages>expat</define-tag>
<define-tag isvulnerable>yes</define-tag>
<define-tag fixed>yes</define-tag>
<define-tag fixed-section>no</define-tag>

#use wml::debian::security



</dl>
