<define-tag pagetitle>DSA-5239-1 gdal</define-tag>
<define-tag report_date>2022-9-27</define-tag>
<define-tag secrefs>CVE-2021-45943</define-tag>
<define-tag packages>gdal</define-tag>
<define-tag isvulnerable>yes</define-tag>
<define-tag fixed>yes</define-tag>
<define-tag fixed-section>no</define-tag>

#use wml::debian::security



</dl>
