<define-tag pagetitle>DSA-5200-1 libtirpc</define-tag>
<define-tag report_date>2022-8-07</define-tag>
<define-tag secrefs>CVE-2021-46828 Bug#1015873</define-tag>
<define-tag packages>libtirpc</define-tag>
<define-tag isvulnerable>yes</define-tag>
<define-tag fixed>yes</define-tag>
<define-tag fixed-section>no</define-tag>

#use wml::debian::security



</dl>
