<define-tag pagetitle>DLA-1728-1 openssh</define-tag>
<define-tag report_date>2019-3-25</define-tag>
<define-tag secrefs>CVE-2018-20685 CVE-2019-6109 CVE-2019-6111 Bug#793412 Bug#919101 Bug#923486</define-tag>
<define-tag packages>openssh</define-tag>
<define-tag isvulnerable>yes</define-tag>
<define-tag fixed>yes</define-tag>
<define-tag fixed-section>no</define-tag>

#use wml::debian::security

