<define-tag pagetitle>DLA-1861-1 libsdl2-image</define-tag>
<define-tag report_date>2019-7-22</define-tag>
<define-tag secrefs>CVE-2018-3977 CVE-2019-5052 CVE-2019-7635 CVE-2019-12216 CVE-2019-12217 CVE-2019-12218 CVE-2019-12219 CVE-2019-12220 CVE-2019-12221 CVE-2019-12222 Bug#932754 Bug#932755</define-tag>
<define-tag packages>libsdl2-image</define-tag>
<define-tag isvulnerable>yes</define-tag>
<define-tag fixed>yes</define-tag>
<define-tag fixed-section>no</define-tag>

#use wml::debian::security

