<define-tag pagetitle>DLA-1954-1 lucene-solr</define-tag>
<define-tag report_date>2019-10-10</define-tag>
<define-tag secrefs>CVE-2019-0193</define-tag>
<define-tag packages>lucene-solr</define-tag>
<define-tag isvulnerable>yes</define-tag>
<define-tag fixed>yes</define-tag>
<define-tag fixed-section>no</define-tag>

#use wml::debian::security

