<define-tag pagetitle>DLA-1695-1 sox</define-tag>
<define-tag report_date>2019-02-28</define-tag>
<define-tag secrefs>CVE-2017-15370 CVE-2017-15372 CVE-2017-15642 CVE-2017-18189 Bug#878808 Bug#878810 Bug#882144 Bug#881121</define-tag>
<define-tag packages>sox</define-tag>
<define-tag isvulnerable>yes</define-tag>
<define-tag fixed>yes</define-tag>
<define-tag fixed-section>no</define-tag>

#use wml::debian::security

