<define-tag pagetitle>DLA-755-1 dcmtk</define-tag>
<define-tag report_date>2016-12-20</define-tag>
<define-tag secrefs>CVE-2015-8979 Bug#848830</define-tag>
<define-tag packages>dcmtk</define-tag>
<define-tag isvulnerable>yes</define-tag>
<define-tag fixed>yes</define-tag>
<define-tag fixed-section>no</define-tag>

#use wml::debian::security

