<define-tag pagetitle>DLA-454-1 minissdpd</define-tag>
<define-tag report_date>2016-5-3</define-tag>
<define-tag secrefs>CVE-2016-3178 CVE-2016-3179</define-tag>
<define-tag packages>minissdpd</define-tag>
<define-tag isvulnerable>yes</define-tag>
<define-tag fixed>yes</define-tag>
<define-tag fixed-section>no</define-tag>

#use wml::debian::security

