<define-tag pagetitle>DLA-464-1 libav</define-tag>
<define-tag report_date>2016-5-10</define-tag>
<define-tag secrefs>CVE-2014-9676</define-tag>
<define-tag packages>libav</define-tag>
<define-tag isvulnerable>yes</define-tag>
<define-tag fixed>yes</define-tag>
<define-tag fixed-section>no</define-tag>

#use wml::debian::security

