<define-tag pagetitle>DLA-537-1 roundcube</define-tag>
<define-tag report_date>2016-6-30</define-tag>
<define-tag secrefs>CVE-2015-8864</define-tag>
<define-tag packages>roundcube</define-tag>
<define-tag isvulnerable>yes</define-tag>
<define-tag fixed>yes</define-tag>
<define-tag fixed-section>no</define-tag>

#use wml::debian::security

